seq1	seq20	608
seq2	seq8	416
seq2	seq11	424
seq2	seq14	1060
seq3	seq1	396
seq3	seq5	1016
seq4	seq17	152
seq5	seq1	500
seq6	seq7	720
seq6	seq9	668
seq6	seq12	460
seq7	seq9	1044
seq7	seq12	820
seq8	seq3	644
seq8	seq5	540
seq9	seq12	856
seq11	seq3	620
seq11	seq5	524
seq11	seq8	1072
seq12	seq15	80
seq13	seq4	744
seq13	seq16	848
seq14	seq8	452
seq14	seq11	492
seq15	seq10	640
seq15	seq18	808
seq16	seq4	1032
seq16	seq17	80
seq18	seq10	904
seq19	seq4	388
seq19	seq13	732
seq19	seq16	492
seq20	seq19	428
