seq1	seq10	804
seq2	seq14	1060
seq3	seq5	1016
seq4	seq9	1068
seq5	seq1	500
seq6	seq17	672
seq7	seq6	720
seq8	seq3	644
seq9	seq7	1044
seq10	seq18	904
seq11	seq8	1072
seq12	seq16	996
seq13	seq12	860
seq14	seq11	492
seq15	seq19	632
seq16	seq4	1032
seq18	seq20	1004
seq19	seq13	732
seq20	seq15	908
